06.05/ALL0038/F0038CH1.CSV

Record Length,2.500000e+03,,  -0.000000500000,   3.00000,
Sample Interval,4.000000e-10,,  -0.000000499600,   3.08000,
Trigger Point,1.250000000000e+03,,  -0.000000499200,   3.16000,
,,,  -0.000000498800,   3.20000,
,,,  -0.000000498400,   3.28000,
,,,  -0.000000498000,   3.36000,
Source,CH1,,  -0.000000497600,   3.40000,
Vertical Units,V,,  -0.000000497200,   3.48000,
Vertical Scale,1.000000e+00,,  -0.000000496800,   3.56000,
Vertical Offset,-2.440000e+00,,  -0.000000496400,   3.60000,
Horizontal Units,s,,  -0.000000496000,   3.68000,
Horizontal Scale,1.000000e-07,,  -0.000000495600,   3.76000,
Pt Fmt,Y,,  -0.000000495200,   3.84000,
Yzero,0.000000e+00,,  -0.000000494800,   3.96000,
Probe Atten,1.000000e+00,,  -0.000000494400,   4.04000,
Model Number,TDS1012C-EDU,,  -0.000000494000,   4.16000,
Serial Number,C013503,,  -0.000000493600,   4.28000,
Firmware Version,FV:v25.11,,  -0.000000493200,   4.44000,
,,,-00.000000492800,   4.52000,
,,,-00.000000492400,   4.64000,
,,,-00.000000492000,   4.76000,
,,,-00.000000491600,   4.88000,
,,,-00.000000491200,   4.96000,
,,,-00.000000490800,   5.04000,
,,,-00.000000490400,   5.12000,
,,,-00.000000490000,   5.20000,
,,,-00.000000489600,   5.28000,
,,,-00.000000489200,   5.36000,
,,,-00.000000488800,   5.40000,
,,,-00.000000488400,   5.44000,
,,,-00.000000488000,   5.48000,
,,,-00.000000487600,   5.52000,
,,,-00.000000487200,   5.56000,
,,,-00.000000486800,   5.56000,
,,,-00.000000486400,   5.60000,
,,,-00.000000486000,   5.60000,
,,,-00.000000485600,   5.60000,
,,,-00.000000485200,   5.60000,
,,,-00.000000484800,   5.60000,
,,,-00.000000484400,   5.60000,
,,,-00.000000484000,   5.60000,
,,,-00.000000483600,   5.60000,
,,,-00.000000483200,   5.60000,
,,,-00.000000482800,   5.60000,
,,,-00.000000482400,   5.60000,
,,,-00.000000482000,   5.64000,
,,,-00.000000481600,   5.64000,
,,,-00.000000481200,   5.64000,
,,,-00.000000480800,   5.64000,
,,,-00.000000480400,   5.64000,
,,,-00.000000480000,   5.68000,
,,,-00.000000479600,   5.68000,
,,,-00.000000479200,   5.72000,
,,,-00.000000478800,   5.72000,
,,,-00.000000478400,   5.72000,
,,,-00.000000478000,   5.72000,
,,,-00.000000477600,   5.72000,
,,,-00.000000477200,   5.72000,
,,,-00.000000476800,   5.72000,
,,,-00.000000476400,   5.72000,
,,,-00.000000476000,   5.72000,
,,,-00.000000475600,   5.72000,
,,,-00.000000475200,   5.72000,
,,,-00.000000474800,   5.68000,
,,,-00.000000474400,   5.68000,
,,,-00.000000474000,   5.64000,
,,,-00.000000473600,   5.60000,
,,,-00.000000473200,   5.60000,
,,,-00.000000472800,   5.52000,
,,,-00.000000472400,   5.48000,
,,,-00.000000472000,   5.48000,
,,,-00.000000471600,   5.44000,
,,,-00.000000471200,   5.36000,
,,,-00.000000470800,   5.32000,
,,,-00.000000470400,   5.28000,
,,,-00.000000470000,   5.24000,
,,,-00.000000469600,   5.24000,
,,,-00.000000469200,   5.20000,
,,,-00.000000468800,   5.16000,
,,,-00.000000468400,   5.12000,
,,,-00.000000468000,   5.08000,
,,,-00.000000467600,   5.08000,
,,,-00.000000467200,   5.08000,
,,,-00.000000466800,   5.04000,
,,,-00.000000466400,   5.04000,
,,,-00.000000466000,   5.04000,
,,,-00.000000465600,   5.04000,
,,,-00.000000465200,   5.00000,
,,,-00.000000464800,   5.00000,
,,,-00.000000464400,   5.00000,
,,,-00.000000464000,   5.00000,
,,,-00.000000463600,   5.00000,
,,,-00.000000463200,   5.00000,
,,,-00.000000462800,   5.00000,
,,,-00.000000462400,   4.96000,
,,,-00.000000462000,   4.96000,
,,,-00.000000461600,   4.96000,
,,,-00.000000461200,   4.92000,
,,,-00.000000460800,   4.92000,
,,,-00.000000460400,   4.88000,
,,,-00.000000460000,   4.88000,
,,,-00.000000459600,   4.84000,
,,,-00.000000459200,   4.84000,
,,,-00.000000458800,   4.80000,
,,,-00.000000458400,   4.76000,
,,,-00.000000458000,   4.76000,
,,,-00.000000457600,   4.72000,
,,,-00.000000457200,   4.72000,
,,,-00.000000456800,   4.68000,
,,,-00.000000456400,   4.68000,
,,,-00.000000456000,   4.68000,
,,,-00.000000455600,   4.64000,
,,,-00.000000455200,   4.64000,
,,,-00.000000454800,   4.64000,
,,,-00.000000454400,   4.64000,
,,,-00.000000454000,   4.64000,
,,,-00.000000453600,   4.64000,
,,,-00.000000453200,   4.64000,
,,,-00.000000452800,   4.68000,
,,,-00.000000452400,   4.68000,
,,,-00.000000452000,   4.68000,
,,,-00.000000451600,   4.68000,
,,,-00.000000451200,   4.72000,
,,,-00.000000450800,   4.72000,
,,,-00.000000450400,   4.72000,
,,,-00.000000450000,   4.76000,
,,,-00.000000449600,   4.76000,
,,,-00.000000449200,   4.76000,
,,,-00.000000448800,   4.76000,
,,,-00.000000448400,   4.76000,
,,,-00.000000448000,   4.76000,
,,,-00.000000447600,   4.76000,
,,,-00.000000447200,   4.76000,
,,,-00.000000446800,   4.76000,
,,,-00.000000446400,   4.76000,
,,,-00.000000446000,   4.76000,
,,,-00.000000445600,   4.76000,
,,,-00.000000445200,   4.76000,
,,,-00.000000444800,   4.76000,
,,,-00.000000444400,   4.76000,
,,,-00.000000444000,   4.76000,
,,,-00.000000443600,   4.76000,
,,,-00.000000443200,   4.76000,
,,,-00.000000442800,   4.76000,
,,,-00.000000442400,   4.76000,
,,,-00.000000442000,   4.76000,
,,,-00.000000441600,   4.76000,
,,,-00.000000441200,   4.76000,
,,,-00.000000440800,   4.76000,
,,,-00.000000440400,   4.80000,
,,,-00.000000440000,   4.80000,
,,,-00.000000439600,   4.80000,
,,,-00.000000439200,   4.84000,
,,,-00.000000438800,   4.84000,
,,,-00.000000438400,   4.84000,
,,,-00.000000438000,   4.88000,
,,,-00.000000437600,   4.88000,
,,,-00.000000437200,   4.88000,
,,,-00.000000436800,   4.92000,
,,,-00.000000436400,   4.92000,
,,,-00.000000436000,   4.92000,
,,,-00.000000435600,   4.96000,
,,,-00.000000435200,   4.96000,
,,,-00.000000434800,   4.96000,
,,,-00.000000434400,   4.96000,
,,,-00.000000434000,   4.96000,
,,,-00.000000433600,   4.96000,
,,,-00.000000433200,   4.96000,
,,,-00.000000432800,   4.96000,
,,,-00.000000432400,   4.96000,
,,,-00.000000432000,   4.96000,
,,,-00.000000431600,   4.96000,
,,,-00.000000431200,   4.96000,
,,,-00.000000430800,   4.96000,
,,,-00.000000430400,   4.96000,
,,,-00.000000430000,   4.96000,
,,,-00.000000429600,   4.96000,
,,,-00.000000429200,   4.96000,
,,,-00.000000428800,   4.96000,
,,,-00.000000428400,   4.96000,
,,,-00.000000428000,   4.96000,
,,,-00.000000427600,   4.96000,
,,,-00.000000427200,   4.96000,
,,,-00.000000426800,   4.96000,
,,,-00.000000426400,   5.00000,
,,,-00.000000426000,   5.00000,
,,,-00.000000425600,   5.00000,
,,,-00.000000425200,   5.00000,
,,,-00.000000424800,   5.00000,
,,,-00.000000424400,   5.04000,
,,,-00.000000424000,   5.04000,
,,,-00.000000423600,   5.04000,
,,,-00.000000423200,   5.04000,
,,,-00.000000422800,   5.04000,
,,,-00.000000422400,   5.04000,
,,,-00.000000422000,   5.04000,
,,,-00.000000421600,   5.04000,
,,,-00.000000421200,   5.04000,
,,,-00.000000420800,   5.04000,
,,,-00.000000420400,   5.04000,
,,,-00.000000420000,   5.04000,
,,,-00.000000419600,   5.04000,
,,,-00.000000419200,   5.04000,
,,,-00.000000418800,   5.04000,
,,,-00.000000418400,   5.04000,
,,,-00.000000418000,   5.04000,
,,,-00.000000417600,   5.04000,
,,,-00.000000417200,   5.00000,
,,,-00.000000416800,   5.00000,
,,,-00.000000416400,   5.00000,
,,,-00.000000416000,   5.00000,
,,,-00.000000415600,   5.00000,
,,,-00.000000415200,   5.00000,
,,,-00.000000414800,   5.00000,
,,,-00.000000414400,   5.00000,
,,,-00.000000414000,   5.00000,
,,,-00.000000413600,   5.00000,
,,,-00.000000413200,   5.00000,
,,,-00.000000412800,   5.00000,
,,,-00.000000412400,   5.00000,
,,,-00.000000412000,   5.00000,
,,,-00.000000411600,   5.00000,
,,,-00.000000411200,   5.00000,
,,,-00.000000410800,   5.00000,
,,,-00.000000410400,   5.00000,
,,,-00.000000410000,   5.00000,
,,,-00.000000409600,   5.00000,
,,,-00.000000409200,   5.00000,
,,,-00.000000408800,   5.00000,
,,,-00.000000408400,   5.00000,
,,,-00.000000408000,   5.00000,
,,,-00.000000407600,   5.00000,
,,,-00.000000407200,   5.00000,
,,,-00.000000406800,   5.00000,
,,,-00.000000406400,   5.00000,
,,,-00.000000406000,   5.00000,
,,,-00.000000405600,   5.00000,
,,,-00.000000405200,   5.00000,
,,,-00.000000404800,   4.96000,
,,,-00.000000404400,   4.96000,
,,,-00.000000404000,   4.96000,
,,,-00.000000403600,   4.96000,
,,,-00.000000403200,   4.96000,
,,,-00.000000402800,   4.96000,
,,,-00.000000402400,   4.96000,
,,,-00.000000402000,   4.96000,
,,,-00.000000401600,   4.96000,
,,,-00.000000401200,   4.96000,
,,,-00.000000400800,   4.92000,
,,,-00.000000400400,   4.92000,
,,,-00.000000400000,   4.92000,
,,,-00.000000399600,   4.92000,
,,,-00.000000399200,   4.96000,
,,,-00.000000398800,   4.92000,
,,,-00.000000398400,   4.92000,
,,,-00.000000398000,   4.96000,
,,,-00.000000397600,   4.96000,
,,,-00.000000397200,   4.96000,
,,,-00.000000396800,   4.96000,
,,,-00.000000396400,   4.96000,
,,,-00.000000396000,   4.96000,
,,,-00.000000395600,   4.96000,
,,,-00.000000395200,   4.96000,
,,,-00.000000394800,   4.96000,
,,,-00.000000394400,   4.96000,
,,,-00.000000394000,   4.96000,
,,,-00.000000393600,   4.96000,
,,,-00.000000393200,   4.92000,
,,,-00.000000392800,   4.92000,
,,,-00.000000392400,   4.92000,
,,,-00.000000392000,   4.92000,
,,,-00.000000391600,   4.92000,
,,,-00.000000391200,   4.92000,
,,,-00.000000390800,   4.92000,
,,,-00.000000390400,   4.92000,
,,,-00.000000390000,   4.92000,
,,,-00.000000389600,   4.92000,
,,,-00.000000389200,   4.92000,
,,,-00.000000388800,   4.92000,
,,,-00.000000388400,   4.92000,
,,,-00.000000388000,   4.92000,
,,,-00.000000387600,   4.92000,
,,,-00.000000387200,   4.92000,
,,,-00.000000386800,   4.92000,
,,,-00.000000386400,   4.92000,
,,,-00.000000386000,   4.92000,
,,,-00.000000385600,   4.92000,
,,,-00.000000385200,   4.92000,
,,,-00.000000384800,   4.92000,
,,,-00.000000384400,   4.92000,
,,,-00.000000384000,   4.92000,
,,,-00.000000383600,   4.92000,
,,,-00.000000383200,   4.92000,
,,,-00.000000382800,   4.92000,
,,,-00.000000382400,   4.92000,
,,,-00.000000382000,   4.92000,
,,,-00.000000381600,   4.92000,
,,,-00.000000381200,   4.92000,
,,,-00.000000380800,   4.92000,
,,,-00.000000380400,   4.92000,
,,,-00.000000380000,   4.92000,
,,,-00.000000379600,   4.92000,
,,,-00.000000379200,   4.92000,
,,,-00.000000378800,   4.92000,
,,,-00.000000378400,   4.92000,
,,,-00.000000378000,   4.92000,
,,,-00.000000377600,   4.92000,
,,,-00.000000377200,   4.92000,
,,,-00.000000376800,   4.92000,
,,,-00.000000376400,   4.92000,
,,,-00.000000376000,   4.92000,
,,,-00.000000375600,   4.92000,
,,,-00.000000375200,   4.92000,
,,,-00.000000374800,   4.92000,
,,,-00.000000374400,   4.92000,
,,,-00.000000374000,   4.92000,
,,,-00.000000373600,   4.92000,
,,,-00.000000373200,   4.92000,
,,,-00.000000372800,   4.92000,
,,,-00.000000372400,   4.92000,
,,,-00.000000372000,   4.92000,
,,,-00.000000371600,   4.92000,
,,,-00.000000371200,   4.96000,
,,,-00.000000370800,   4.92000,
,,,-00.000000370400,   4.92000,
,,,-00.000000370000,   4.96000,
,,,-00.000000369600,   4.96000,
,,,-00.000000369200,   4.96000,
,,,-00.000000368800,   4.96000,
,,,-00.000000368400,   4.96000,
,,,-00.000000368000,   4.96000,
,,,-00.000000367600,   4.96000,
,,,-00.000000367200,   4.96000,
,,,-00.000000366800,   4.96000,
,,,-00.000000366400,   4.96000,
,,,-00.000000366000,   4.96000,
,,,-00.000000365600,   4.96000,
,,,-00.000000365200,   4.96000,
,,,-00.000000364800,   4.96000,
,,,-00.000000364400,   4.96000,
,,,-00.000000364000,   4.96000,
,,,-00.000000363600,   4.96000,
,,,-00.000000363200,   4.96000,
,,,-00.000000362800,   4.96000,
,,,-00.000000362400,   4.96000,
,,,-00.000000362000,   4.96000,
,,,-00.000000361600,   4.96000,
,,,-00.000000361200,   4.96000,
,,,-00.000000360800,   4.96000,
,,,-00.000000360400,   4.96000,
,,,-00.000000360000,   4.96000,
,,,-00.000000359600,   4.96000,
,,,-00.000000359200,   4.96000,
,,,-00.000000358800,   4.96000,
,,,-00.000000358400,   4.96000,
,,,-00.000000358000,   4.96000,
,,,-00.000000357600,   4.96000,
,,,-00.000000357200,   4.96000,
,,,-00.000000356800,   4.96000,
,,,-00.000000356400,   4.96000,
,,,-00.000000356000,   4.96000,
,,,-00.000000355600,   4.96000,
,,,-00.000000355200,   4.96000,
,,,-00.000000354800,   4.96000,
,,,-00.000000354400,   4.96000,
,,,-00.000000354000,   4.96000,
,,,-00.000000353600,   4.96000,
,,,-00.000000353200,   4.96000,
,,,-00.000000352800,   4.96000,
,,,-00.000000352400,   4.96000,
,,,-00.000000352000,   4.96000,
,,,-00.000000351600,   4.96000,
,,,-00.000000351200,   4.96000,
,,,-00.000000350800,   4.96000,
,,,-00.000000350400,   4.96000,
,,,-00.000000350000,   4.96000,
,,,-00.000000349600,   4.96000,
,,,-00.000000349200,   4.96000,
,,,-00.000000348800,   4.96000,
,,,-00.000000348400,   4.96000,
,,,-00.000000348000,   4.96000,
,,,-00.000000347600,   4.96000,
,,,-00.000000347200,   4.96000,
,,,-00.000000346800,   4.96000,
,,,-00.000000346400,   4.96000,
,,,-00.000000346000,   4.96000,
,,,-00.000000345600,   4.96000,
,,,-00.000000345200,   4.96000,
,,,-00.000000344800,   4.96000,
,,,-00.000000344400,   4.96000,
,,,-00.000000344000,   4.96000,
,,,-00.000000343600,   4.96000,
,,,-00.000000343200,   4.96000,
,,,-00.000000342800,   4.96000,
,,,-00.000000342400,   4.96000,
,,,-00.000000342000,   4.96000,
,,,-00.000000341600,   4.96000,
,,,-00.000000341200,   4.96000,
,,,-00.000000340800,   4.96000,
,,,-00.000000340400,   4.96000,
,,,-00.000000340000,   4.96000,
,,,-00.000000339600,   4.96000,
,,,-00.000000339200,   4.96000,
,,,-00.000000338800,   4.92000,
,,,-00.000000338400,   4.92000,
,,,-00.000000338000,   4.96000,
,,,-00.000000337600,   4.92000,
,,,-00.000000337200,   4.92000,
,,,-00.000000336800,   4.92000,
,,,-00.000000336400,   4.92000,
,,,-00.000000336000,   4.92000,
,,,-00.000000335600,   4.92000,
,,,-00.000000335200,   4.92000,
,,,-00.000000334800,   4.92000,
,,,-00.000000334400,   4.92000,
,,,-00.000000334000,   4.92000,
,,,-00.000000333600,   4.92000,
,,,-00.000000333200,   4.92000,
,,,-00.000000332800,   4.92000,
,,,-00.000000332400,   4.92000,
,,,-00.000000332000,   4.92000,
,,,-00.000000331600,   4.92000,
,,,-00.000000331200,   4.92000,
,,,-00.000000330800,   4.92000,
,,,-00.000000330400,   4.92000,
,,,-00.000000330000,   4.92000,
,,,-00.000000329600,   4.92000,
,,,-00.000000329200,   4.92000,
,,,-00.000000328800,   4.92000,
,,,-00.000000328400,   4.92000,
,,,-00.000000328000,   4.92000,
,,,-00.000000327600,   4.92000,
,,,-00.000000327200,   4.92000,
,,,-00.000000326800,   4.92000,
,,,-00.000000326400,   4.92000,
,,,-00.000000326000,   4.92000,
,,,-00.000000325600,   4.92000,
,,,-00.000000325200,   4.92000,
,,,-00.000000324800,   4.92000,
,,,-00.000000324400,   4.92000,
,,,-00.000000324000,   4.92000,
,,,-00.000000323600,   4.92000,
,,,-00.000000323200,   4.92000,
,,,-00.000000322800,   4.92000,
,,,-00.000000322400,   4.92000,
,,,-00.000000322000,   4.92000,
,,,-00.000000321600,   4.92000,
,,,-00.000000321200,   4.92000,
,,,-00.000000320800,   4.92000,
,,,-00.000000320400,   4.92000,
,,,-00.000000320000,   4.92000,
,,,-00.000000319600,   4.92000,
,,,-00.000000319200,   4.92000,
,,,-00.000000318800,   4.92000,
,,,-00.000000318400,   4.92000,
,,,-00.000000318000,   4.92000,
,,,-00.000000317600,   4.92000,
,,,-00.000000317200,   4.92000,
,,,-00.000000316800,   4.92000,
,,,-00.000000316400,   4.92000,
,,,-00.000000316000,   4.92000,
,,,-00.000000315600,   4.96000,
,,,-00.000000315200,   4.96000,
,,,-00.000000314800,   4.96000,
,,,-00.000000314400,   4.96000,
,,,-00.000000314000,   4.96000,
,,,-00.000000313600,   4.96000,
,,,-00.000000313200,   4.96000,
,,,-00.000000312800,   4.96000,
,,,-00.000000312400,   4.96000,
,,,-00.000000312000,   4.96000,
,,,-00.000000311600,   4.96000,
,,,-00.000000311200,   4.96000,
,,,-00.000000310800,   4.92000,
,,,-00.000000310400,   4.96000,
,,,-00.000000310000,   4.96000,
,,,-00.000000309600,   4.96000,
,,,-00.000000309200,   4.96000,
,,,-00.000000308800,   4.92000,
,,,-00.000000308400,   4.92000,
,,,-00.000000308000,   4.96000,
,,,-00.000000307600,   4.92000,
,,,-00.000000307200,   4.96000,
,,,-00.000000306800,   4.96000,
,,,-00.000000306400,   4.96000,
,,,-00.000000306000,   4.96000,
,,,-00.000000305600,   4.96000,
,,,-00.000000305200,   4.96000,
,,,-00.000000304800,   4.92000,
,,,-00.000000304400,   4.92000,
,,,-00.000000304000,   4.96000,
,,,-00.000000303600,   4.96000,
,,,-00.000000303200,   4.96000,
,,,-00.000000302800,   4.92000,
,,,-00.000000302400,   4.92000,
,,,-00.000000302000,   4.96000,
,,,-00.000000301600,   4.96000,
,,,-00.000000301200,   4.96000,
,,,-00.000000300800,   4.96000,
,,,-00.000000300400,   4.96000,
,,,-00.000000300000,   4.96000,
,,,-00.000000299600,   4.96000,
,,,-00.000000299200,   4.96000,
,,,-00.000000298800,   4.92000,
,,,-00.000000298400,   4.96000,
,,,-00.000000298000,   4.96000,
,,,-00.000000297600,   4.96000,
,,,-00.000000297200,   4.96000,
,,,-00.000000296800,   4.92000,
,,,-00.000000296400,   4.92000,
,,,-00.000000296000,   4.92000,
,,,-00.000000295600,   4.92000,
,,,-00.000000295200,   4.92000,
,,,-00.000000294800,   4.92000,
,,,-00.000000294400,   4.92000,
,,,-00.000000294000,   4.92000,
,,,-00.000000293600,   4.92000,
,,,-00.000000293200,   4.92000,
,,,-00.000000292800,   4.92000,
,,,-00.000000292400,   4.92000,
,,,-00.000000292000,   4.92000,
,,,-00.000000291600,   4.92000,
,,,-00.000000291200,   4.92000,
,,,-00.000000290800,   4.92000,
,,,-00.000000290400,   4.92000,
,,,-00.000000290000,   4.92000,
,,,-00.000000289600,   4.92000,
,,,-00.000000289200,   4.92000,
,,,-00.000000288800,   4.92000,
,,,-00.000000288400,   4.92000,
,,,-00.000000288000,   4.92000,
,,,-00.000000287600,   4.92000,
,,,-00.000000287200,   4.92000,
,,,-00.000000286800,   4.92000,
,,,-00.000000286400,   4.92000,
,,,-00.000000286000,   4.92000,
,,,-00.000000285600,   4.92000,
,,,-00.000000285200,   4.92000,
,,,-00.000000284800,   4.92000,
,,,-00.000000284400,   4.92000,
,,,-00.000000284000,   4.92000,
,,,-00.000000283600,   4.92000,
,,,-00.000000283200,   4.92000,
,,,-00.000000282800,   4.92000,
,,,-00.000000282400,   4.92000,
,,,-00.000000282000,   4.92000,
,,,-00.000000281600,   4.92000,
,,,-00.000000281200,   4.92000,
,,,-00.000000280800,   4.92000,
,,,-00.000000280400,   4.92000,
,,,-00.000000280000,   4.92000,
,,,-00.000000279600,   4.92000,
,,,-00.000000279200,   4.92000,
,,,-00.000000278800,   4.92000,
,,,-00.000000278400,   4.92000,
,,,-00.000000278000,   4.92000,
,,,-00.000000277600,   4.92000,
,,,-00.000000277200,   4.92000,
,,,-00.000000276800,   4.92000,
,,,-00.000000276400,   4.92000,
,,,-00.000000276000,   4.92000,
,,,-00.000000275600,   4.92000,
,,,-00.000000275200,   4.92000,
,,,-00.000000274800,   4.92000,
,,,-00.000000274400,   4.92000,
,,,-00.000000274000,   4.92000,
,,,-00.000000273600,   4.92000,
,,,-00.000000273200,   4.92000,
,,,-00.000000272800,   4.92000,
,,,-00.000000272400,   4.92000,
,,,-00.000000272000,   4.92000,
,,,-00.000000271600,   4.92000,
,,,-00.000000271200,   4.92000,
,,,-00.000000270800,   4.92000,
,,,-00.000000270400,   4.92000,
,,,-00.000000270000,   4.92000,
,,,-00.000000269600,   4.92000,
,,,-00.000000269200,   4.92000,
,,,-00.000000268800,   4.92000,
,,,-00.000000268400,   4.92000,
,,,-00.000000268000,   4.92000,
,,,-00.000000267600,   4.92000,
,,,-00.000000267200,   4.92000,
,,,-00.000000266800,   4.92000,
,,,-00.000000266400,   4.92000,
,,,-00.000000266000,   4.92000,
,,,-00.000000265600,   4.92000,
,,,-00.000000265200,   4.92000,
,,,-00.000000264800,   4.92000,
,,,-00.000000264400,   4.92000,
,,,-00.000000264000,   4.92000,
,,,-00.000000263600,   4.92000,
,,,-00.000000263200,   4.92000,
,,,-00.000000262800,   4.92000,
,,,-00.000000262400,   4.92000,
,,,-00.000000262000,   4.92000,
,,,-00.000000261600,   4.92000,
,,,-00.000000261200,   4.92000,
,,,-00.000000260800,   4.92000,
,,,-00.000000260400,   4.88000,
,,,-00.000000260000,   4.88000,
,,,-00.000000259600,   4.84000,
,,,-00.000000259200,   4.80000,
,,,-00.000000258800,   4.72000,
,,,-00.000000258400,   4.64000,
,,,-00.000000258000,   4.52000,
,,,-00.000000257600,   4.40000,
,,,-00.000000257200,   4.24000,
,,,-00.000000256800,   4.04000,
,,,-00.000000256400,   3.88000,
,,,-00.000000256000,   3.68000,
,,,-00.000000255600,   3.52000,
,,,-00.000000255200,   3.36000,
,,,-00.000000254800,   3.16000,
